{
	"info": {
		"_postman_id": "aa07f88b-9669-404d-be34-98d2f32b2fd5",
		"name": "newman",
		"schema": "https://schema.getpostman.com/json/collection/v2.1.0/collection.json",
		"_exporter_id": "42045136"
	},
	"item": [
		{
			"name": "ListOfUsers",
			"event": [
				{
					"listen": "test",
					"script": {
						"exec": [
							"pm.test(\"validate, status code is 200\", function () {\r",
							"pm.test(\"sla: response time is less than 200ms\", function () {\r",
							"    pm.expect(pm.response.responseTime).to.be.below(200);\r",
							"});\r",
							"    pm.response.to.have.status(200);\r",
							"});\r",
							"\r",
							"pm.test(\"page equals two | page_equals_six\", () => {\r",
							" const responseJson = pm.response.json();\r",
							" pm.expect (responseJson.page).to.eql(1);\r",
							" pm.expect (responseJson.per_page).to.eql(6);\r",
							"})\r",
							"\r",
							"var sampleSchema = \r",
							"{\r",
							"    \"$id\": \"http://example.com/example.json\",\r",
							"    \"type\": \"object\",\r",
							"    \"default\": {},\r",
							"    \"title\": \"Root Schema\",\r",
							"    \"required\": [\r",
							"        \"page\",\r",
							"        \"per_page\",\r",
							"        \"total\",\r",
							"        \"total_pages\",\r",
							"        \"data\",\r",
							"        \"support\"\r",
							"    ],\r",
							"    \"properties\": {\r",
							"        \"page\": {\r",
							"            \"type\": \"integer\",\r",
							"            \"default\": 0,\r",
							"            \"title\": \"The page Schema\",\r",
							"            \"examples\": [\r",
							"                1\r",
							"            ]\r",
							"        },\r",
							"        \"per_page\": {\r",
							"            \"type\": \"integer\",\r",
							"            \"default\": 0,\r",
							"            \"title\": \"The per_page Schema\",\r",
							"            \"examples\": [\r",
							"                6\r",
							"            ]\r",
							"        },\r",
							"        \"total\": {\r",
							"            \"type\": \"integer\",\r",
							"            \"default\": 0,\r",
							"            \"title\": \"The total Schema\",\r",
							"            \"examples\": [\r",
							"                12\r",
							"            ]\r",
							"        },\r",
							"        \"total_pages\": {\r",
							"            \"type\": \"integer\",\r",
							"            \"default\": 0,\r",
							"            \"title\": \"The total_pages Schema\",\r",
							"            \"examples\": [\r",
							"                2\r",
							"            ]\r",
							"        },\r",
							"        \"data\": {\r",
							"            \"type\": \"array\",\r",
							"            \"default\": [],\r",
							"            \"title\": \"The data Schema\",\r",
							"            \"items\": {\r",
							"                \"type\": \"object\",\r",
							"                \"title\": \"A Schema\",\r",
							"                \"required\": [\r",
							"                    \"id\",\r",
							"                    \"email\",\r",
							"                    \"first_name\",\r",
							"                    \"last_name\",\r",
							"                    \"avatar\"\r",
							"                ],\r",
							"                \"properties\": {\r",
							"                    \"id\": {\r",
							"                        \"type\": \"integer\",\r",
							"                        \"title\": \"The id Schema\",\r",
							"                        \"examples\": [\r",
							"                            1,\r",
							"                            2,\r",
							"                            3,\r",
							"                            4,\r",
							"                            5,\r",
							"                            6\r",
							"                        ]\r",
							"                    },\r",
							"                    \"email\": {\r",
							"                        \"type\": \"string\",\r",
							"                        \"title\": \"The email Schema\",\r",
							"                        \"examples\": [\r",
							"                            \"george.bluth@reqres.in\",\r",
							"                            \"janet.weaver@reqres.in\",\r",
							"                            \"emma.wong@reqres.in\",\r",
							"                            \"eve.holt@reqres.in\",\r",
							"                            \"charles.morris@reqres.in\",\r",
							"                            \"tracey.ramos@reqres.in\"\r",
							"                        ]\r",
							"                    },\r",
							"                    \"first_name\": {\r",
							"                        \"type\": \"string\",\r",
							"                        \"title\": \"The first_name Schema\",\r",
							"                        \"examples\": [\r",
							"                            \"George\",\r",
							"                            \"Janet\",\r",
							"                            \"Emma\",\r",
							"                            \"Eve\",\r",
							"                            \"Charles\",\r",
							"                            \"Tracey\"\r",
							"                        ]\r",
							"                    },\r",
							"                    \"last_name\": {\r",
							"                        \"type\": \"string\",\r",
							"                        \"title\": \"The last_name Schema\",\r",
							"                        \"examples\": [\r",
							"                            \"Bluth\",\r",
							"                            \"Weaver\",\r",
							"                            \"Wong\",\r",
							"                            \"Holt\",\r",
							"                            \"Morris\",\r",
							"                            \"Ramos\"\r",
							"                        ]\r",
							"                    },\r",
							"                    \"avatar\": {\r",
							"                        \"type\": \"string\",\r",
							"                        \"title\": \"The avatar Schema\",\r",
							"                        \"examples\": [\r",
							"                            \"https://reqres.in/img/faces/1-image.jpg\",\r",
							"                            \"https://reqres.in/img/faces/2-image.jpg\",\r",
							"                            \"https://reqres.in/img/faces/3-image.jpg\",\r",
							"                            \"https://reqres.in/img/faces/4-image.jpg\",\r",
							"                            \"https://reqres.in/img/faces/5-image.jpg\",\r",
							"                            \"https://reqres.in/img/faces/6-image.jpg\"\r",
							"                        ]\r",
							"                    }\r",
							"                },\r",
							"                \"examples\": [{\r",
							"                    \"id\": 1,\r",
							"                    \"email\": \"george.bluth@reqres.in\",\r",
							"                    \"first_name\": \"George\",\r",
							"                    \"last_name\": \"Bluth\",\r",
							"                    \"avatar\": \"https://reqres.in/img/faces/1-image.jpg\"\r",
							"                },\r",
							"                {\r",
							"                    \"id\": 2,\r",
							"                    \"email\": \"janet.weaver@reqres.in\",\r",
							"                    \"first_name\": \"Janet\",\r",
							"                    \"last_name\": \"Weaver\",\r",
							"                    \"avatar\": \"https://reqres.in/img/faces/2-image.jpg\"\r",
							"                },\r",
							"                {\r",
							"                    \"id\": 3,\r",
							"                    \"email\": \"emma.wong@reqres.in\",\r",
							"                    \"first_name\": \"Emma\",\r",
							"                    \"last_name\": \"Wong\",\r",
							"                    \"avatar\": \"https://reqres.in/img/faces/3-image.jpg\"\r",
							"                },\r",
							"                {\r",
							"                    \"id\": 4,\r",
							"                    \"email\": \"eve.holt@reqres.in\",\r",
							"                    \"first_name\": \"Eve\",\r",
							"                    \"last_name\": \"Holt\",\r",
							"                    \"avatar\": \"https://reqres.in/img/faces/4-image.jpg\"\r",
							"                },\r",
							"                {\r",
							"                    \"id\": 5,\r",
							"                    \"email\": \"charles.morris@reqres.in\",\r",
							"                    \"first_name\": \"Charles\",\r",
							"                    \"last_name\": \"Morris\",\r",
							"                    \"avatar\": \"https://reqres.in/img/faces/5-image.jpg\"\r",
							"                },\r",
							"                {\r",
							"                    \"id\": 6,\r",
							"                    \"email\": \"tracey.ramos@reqres.in\",\r",
							"                    \"first_name\": \"Tracey\",\r",
							"                    \"last_name\": \"Ramos\",\r",
							"                    \"avatar\": \"https://reqres.in/img/faces/6-image.jpg\"\r",
							"                }]\r",
							"            },\r",
							"            \"examples\": [\r",
							"                [{\r",
							"                    \"id\": 1,\r",
							"                    \"email\": \"george.bluth@reqres.in\",\r",
							"                    \"first_name\": \"George\",\r",
							"                    \"last_name\": \"Bluth\",\r",
							"                    \"avatar\": \"https://reqres.in/img/faces/1-image.jpg\"\r",
							"                },\r",
							"                {\r",
							"                    \"id\": 2,\r",
							"                    \"email\": \"janet.weaver@reqres.in\",\r",
							"                    \"first_name\": \"Janet\",\r",
							"                    \"last_name\": \"Weaver\",\r",
							"                    \"avatar\": \"https://reqres.in/img/faces/2-image.jpg\"\r",
							"                },\r",
							"                {\r",
							"                    \"id\": 3,\r",
							"                    \"email\": \"emma.wong@reqres.in\",\r",
							"                    \"first_name\": \"Emma\",\r",
							"                    \"last_name\": \"Wong\",\r",
							"                    \"avatar\": \"https://reqres.in/img/faces/3-image.jpg\"\r",
							"                },\r",
							"                {\r",
							"                    \"id\": 4,\r",
							"                    \"email\": \"eve.holt@reqres.in\",\r",
							"                    \"first_name\": \"Eve\",\r",
							"                    \"last_name\": \"Holt\",\r",
							"                    \"avatar\": \"https://reqres.in/img/faces/4-image.jpg\"\r",
							"                },\r",
							"                {\r",
							"                    \"id\": 5,\r",
							"                    \"email\": \"charles.morris@reqres.in\",\r",
							"                    \"first_name\": \"Charles\",\r",
							"                    \"last_name\": \"Morris\",\r",
							"                    \"avatar\": \"https://reqres.in/img/faces/5-image.jpg\"\r",
							"                },\r",
							"                {\r",
							"                    \"id\": 6,\r",
							"                    \"email\": \"tracey.ramos@reqres.in\",\r",
							"                    \"first_name\": \"Tracey\",\r",
							"                    \"last_name\": \"Ramos\",\r",
							"                    \"avatar\": \"https://reqres.in/img/faces/6-image.jpg\"\r",
							"                }]\r",
							"            ]\r",
							"        },\r",
							"        \"support\": {\r",
							"            \"type\": \"object\",\r",
							"            \"default\": {},\r",
							"            \"title\": \"The support Schema\",\r",
							"            \"required\": [\r",
							"                \"url\",\r",
							"                \"text\"\r",
							"            ],\r",
							"            \"properties\": {\r",
							"                \"url\": {\r",
							"                    \"type\": \"string\",\r",
							"                    \"default\": \"\",\r",
							"                    \"title\": \"The url Schema\",\r",
							"                    \"examples\": [\r",
							"                        \"https://contentcaddy.io?utm_source=reqres\\u0026utm_medium=json\\u0026utm_campaign=referral\"\r",
							"                    ]\r",
							"                },\r",
							"                \"text\": {\r",
							"                    \"type\": \"string\",\r",
							"                    \"default\": \"\",\r",
							"                    \"title\": \"The text Schema\",\r",
							"                    \"examples\": [\r",
							"                        \"Tired of writing endless social media content? Let Content Caddy generate it for you.\"\r",
							"                    ]\r",
							"                }\r",
							"            },\r",
							"            \"examples\": [{\r",
							"                \"url\": \"https://contentcaddy.io?utm_source=reqres\\u0026utm_medium=json\\u0026utm_campaign=referral\",\r",
							"                \"text\": \"Tired of writing endless social media content? Let Content Caddy generate it for you.\"\r",
							"            }]\r",
							"        }\r",
							"    },\r",
							"    \"examples\": [{\r",
							"        \"page\": 1,\r",
							"        \"per_page\": 6,\r",
							"        \"total\": 12,\r",
							"        \"total_pages\": 2,\r",
							"        \"data\": [{\r",
							"            \"id\": 1,\r",
							"            \"email\": \"george.bluth@reqres.in\",\r",
							"            \"first_name\": \"George\",\r",
							"            \"last_name\": \"Bluth\",\r",
							"            \"avatar\": \"https://reqres.in/img/faces/1-image.jpg\"\r",
							"        },\r",
							"        {\r",
							"            \"id\": 2,\r",
							"            \"email\": \"janet.weaver@reqres.in\",\r",
							"            \"first_name\": \"Janet\",\r",
							"            \"last_name\": \"Weaver\",\r",
							"            \"avatar\": \"https://reqres.in/img/faces/2-image.jpg\"\r",
							"        },\r",
							"        {\r",
							"            \"id\": 3,\r",
							"            \"email\": \"emma.wong@reqres.in\",\r",
							"            \"first_name\": \"Emma\",\r",
							"            \"last_name\": \"Wong\",\r",
							"            \"avatar\": \"https://reqres.in/img/faces/3-image.jpg\"\r",
							"        },\r",
							"        {\r",
							"            \"id\": 4,\r",
							"            \"email\": \"eve.holt@reqres.in\",\r",
							"            \"first_name\": \"Eve\",\r",
							"            \"last_name\": \"Holt\",\r",
							"            \"avatar\": \"https://reqres.in/img/faces/4-image.jpg\"\r",
							"        },\r",
							"        {\r",
							"            \"id\": 5,\r",
							"            \"email\": \"charles.morris@reqres.in\",\r",
							"            \"first_name\": \"Charles\",\r",
							"            \"last_name\": \"Morris\",\r",
							"            \"avatar\": \"https://reqres.in/img/faces/5-image.jpg\"\r",
							"        },\r",
							"        {\r",
							"            \"id\": 6,\r",
							"            \"email\": \"tracey.ramos@reqres.in\",\r",
							"            \"first_name\": \"Tracey\",\r",
							"            \"last_name\": \"Ramos\",\r",
							"            \"avatar\": \"https://reqres.in/img/faces/6-image.jpg\"\r",
							"        }],\r",
							"        \"support\": {\r",
							"            \"url\": \"https://contentcaddy.io?utm_source=reqres\\u0026utm_medium=json\\u0026utm_campaign=referral\",\r",
							"            \"text\": \"Tired of writing endless social media content? Let Content Caddy generate it for you.\"\r",
							"        }\r",
							"    }]\r",
							"}\r",
							"\r",
							"pm.test (\"Validate schema json response data format \", () => {\r",
							"    pm.response.to.have.jsonSchema(sampleSchema)\r",
							"})\r",
							"sampleSchema"
						],
						"type": "text/javascript",
						"packages": {}
					}
				},
				{
					"listen": "prerequest",
					"script": {
						"exec": [
							""
						],
						"type": "text/javascript",
						"packages": {}
					}
				}
			],
			"request": {
				"method": "GET",
				"header": [],
				"url": {
					"raw": "{{ServiceEndPoint}}{{ResourceEndPoint}}/users",
					"host": [
						"{{ServiceEndPoint}}{{ResourceEndPoint}}"
					],
					"path": [
						"users"
					]
				}
			},
			"response": []
		},
		{
			"name": "CreateNames",
			"event": [
				{
					"listen": "test",
					"script": {
						"exec": [
							"\r",
							"\r",
							"\r",
							"pm.test(\"validate, status code is 201\", function () {\r",
							"pm.test(\"sla: response time is less than 500ms\", function () {\r",
							"    pm.expect(pm.response.responseTime).to.be.below(500);\r",
							"});\r",
							"    pm.response.to.have.status(201);\r",
							"});\r",
							"\r",
							"\r",
							"var sampleSchema = \r",
							"{\r",
							"    \"$id\": \"http://example.com/example.json\",\r",
							"    \"type\": \"object\",\r",
							"    \"default\": {},\r",
							"    \"title\": \"Root Schema\",\r",
							"    \"required\": [\r",
							"        \"name\",\r",
							"        \"job\",\r",
							"        \"id\",\r",
							"        \"createdAt\"\r",
							"    ],\r",
							"    \"properties\": {\r",
							"        \"name\": {\r",
							"            \"type\": \"string\",\r",
							"            \"default\": \"\",\r",
							"            \"title\": \"The name Schema\",\r",
							"            \"examples\": [\r",
							"                \"AI\"\r",
							"            ]\r",
							"        },\r",
							"        \"job\": {\r",
							"            \"type\": \"string\",\r",
							"            \"default\": \"\",\r",
							"            \"title\": \"The job Schema\",\r",
							"            \"examples\": [\r",
							"                \"Automation\"\r",
							"            ]\r",
							"        },\r",
							"        \"id\": {\r",
							"            \"type\": \"string\",\r",
							"            \"default\": \"\",\r",
							"            \"title\": \"The id Schema\",\r",
							"            \"examples\": [\r",
							"                \"763\"\r",
							"            ]\r",
							"        },\r",
							"        \"createdAt\": {\r",
							"            \"type\": \"string\",\r",
							"            \"default\": \"\",\r",
							"            \"title\": \"The createdAt Schema\",\r",
							"            \"examples\": [\r",
							"                \"2025-02-11T23:05:54.569Z\"\r",
							"            ]\r",
							"        }\r",
							"    },\r",
							"    \"examples\": [{\r",
							"        \"name\": \"AI\",\r",
							"        \"job\": \"Automation\",\r",
							"        \"id\": \"763\",\r",
							"        \"createdAt\": \"2025-02-11T23:05:54.569Z\"\r",
							"    }]\r",
							"}\r",
							"\r",
							"pm.test (\"Validate schema json response data format \", () => {\r",
							"    pm.response.to.have.jsonSchema(sampleSchema)\r",
							"})\r",
							"sampleSchema"
						],
						"type": "text/javascript",
						"packages": {}
					}
				}
			],
			"request": {
				"method": "POST",
				"header": [],
				"body": {
					"mode": "raw",
					"raw": "{\r\n  \"name\" : \"AI\",\r\n   \"job\" : \"Automation\"\r\n\r\n}",
					"options": {
						"raw": {
							"language": "json"
						}
					}
				},
				"url": {
					"raw": "{{ServiceEndPoint}}{{ResourceEndPoint}}/users",
					"host": [
						"{{ServiceEndPoint}}{{ResourceEndPoint}}"
					],
					"path": [
						"users"
					]
				}
			},
			"response": []
		}
	],
	"event": [
		{
			"listen": "prerequest",
			"script": {
				"type": "text/javascript",
				"packages": {},
				"exec": [
					""
				]
			}
		},
		{
			"listen": "test",
			"script": {
				"type": "text/javascript",
				"packages": {},
				"exec": [
					""
				]
			}
		}
	],
	"variable": [
		{
			"key": "ServiceEndPoint",
			"value": "https://reqres.in",
			"type": "string"
		},
		{
			"key": "ResourceEndPoint",
			"value": "/api",
			"type": "string"
		}
	]
}
